verilog.tmp/dv/caravel/mgmt_soc/gpio/mgmt_buffers-no-wide-busses.vcd
$date
	Mon Feb 15 14:22:38 2021
$end
$version
	GTKWave Analyzer v3.3.98 (w)1999-2019 BSI
$end
$timescale
	1ps
$end
$scope module gpio_tb $end
$scope module uut $end
$scope module mgmt_buffers $end
$var wire 1 5 user_reset $end
$var wire 1 7 vccd $end
$var wire 1 8 vccd1 $end
$var wire 1 9 vccd2 $end
$var wire 1 : vdda1 $end
$var wire 1 ; vdda2 $end
$var wire 1 < vssa1 $end
$var wire 1 = vssa2 $end
$var wire 1 > vssd $end
$var wire 1 ? vssd1 $end
$var wire 1 @ vssd2 $end
$var wire 1 6 user_resetn $end
$var wire 1 4 user_clock2 $end
$var wire 1 3 user_clock $end
$var wire 1 2 user2_vdd_powergood $end
$var wire 1 1 user2_vcc_powergood $end
$var wire 1 0 user1_vdd_powergood $end
$var wire 1 / user1_vcc_powergood $end
$var wire 1 . mprj_we_o_user $end
$var wire 1 - mprj_we_o_core $end
$var wire 1 , mprj_vdd_logic1 $end
$var wire 1 + mprj_stb_o_user $end
$var wire 1 * mprj_stb_o_core $end
$var wire 4 ) mprj_sel_o_user[3:0] $end
$var wire 4 ( mprj_sel_o_core[3:0] $end
$var wire 1 ' mprj_cyc_o_core $end
$var wire 1 & mprj2_vdd_logic1 $end
$var wire 1 % mprj2_logic1 $end
$var wire 1 $ caravel_rstn $end
$var wire 1 # caravel_clk2 $end
$var wire 1 " caravel_clk $end
$upscope $end
$upscope $end
$upscope $end
$enddefinitions $end
$dumpvars
#0
x"
x+
0>
z9
x5
07
x0
0=
x1
z@
0:
x/
x.
x,
0?
x-
x#
x4
0;
x*
08
bx (
x6
bx )
x2
0<
x'
x&
x$
x3
x%
#200000
1:
1;
#400000
10
0"
17
15
1,
1/
03
04
0#
18
0$
12
06
1&
#410000
1"
0+
0.
14
0-
13
b0 (
0*
1#
b0 )
0'
#420000
0"
03
04
0#
#430000
1#
14
1"
13
#440000
03
0"
0#
04
#450000
14
1#
13
1"
#460000
0"
03
04
0#
#470000
1#
14
1"
13
#480000
03
0"
0#
04
#490000
14
1#
13
1"
#500000
0"
03
04
0#
#510000
1#
14
1"
13
#520000
03
0"
0#
04
#530000
14
1#
13
1"
#540000
0"
03
04
0#
#550000
1#
14
1"
13
#560000
03
0"
0#
04
#570000
14
1#
13
1"
#580000
0"
03
04
0#
#590000
1#
14
1"
13
#600000
03
0"
0#
04
#610000
14
1#
13
1"
#620000
0"
03
04
0#
#630000
1#
14
1"
13
#640000
03
0"
0#
04
#650000
14
1#
13
1"
#660000
0"
03
04
0#
#670000
1#
14
1"
13
#680000
03
0"
0#
04
#690000
14
1#
13
1"
#700000
0"
03
04
0#
#710000
1#
14
1"
13
#720000
03
0"
0#
04
#730000
14
1#
13
1"
#740000
0"
03
04
0#
#750000
1#
14
1"
13
#760000
03
0"
0#
04
#770000
14
1#
13
1"
#780000
0"
03
04
0#
#790000
1#
14
1"
13
#800000
03
0"
0#
04
#810000
14
1#
13
1"
#820000
0"
03
04
0#
#830000
1#
14
1"
13
#840000
03
0"
0#
04
#850000
14
1#
13
1"
#860000
0"
03
04
0#
#870000
1#
14
1"
13
#880000
03
0"
0#
04
#890000
14
1#
13
1"
#900000
0"
03
04
0#
#910000
1#
14
1"
13
#920000
03
0"
0#
04
#930000
14
1#
13
1"
#940000
0"
03
04
0#
#950000
1#
14
1"
13
#960000
03
0"
0#
04
#970000
14
1#
13
1"
#980000
0"
03
04
0#
#990000
1#
14
1"
13
#1000000
03
0"
0#
04
#1010000
14
1#
13
1"
#1020000
0"
03
04
0#
#1030000
1#
14
1"
13
#1040000
03
0"
0#
04
#1050000
14
05
1#
13
16
1"
1$
#1060000
04
0"
0#
03
#1070000
13
1#
14
1"
#1080000
0"
04
03
0#
#1090000
1#
13
1"
14
#1100000
04
0"
0#
03
#1110000
13
1'
1#
14
1"
#1120000
0"
03
04
0#
#1130000
1#
1"
14
13
#1140000
03
0#
04
0"
#1150000
1"
13
14
1#
#1160000
0#
0"
04
03
#1170000
13
1#
14
1"
#1180000
0"
03
04
0#
#1190000
1#
1"
14
13
#1200000
03
0#
04
0"
#1210000
1"
13
14
1#
#1220000
0#
0"
04
03
#1230000
13
1#
14
1"
#1240000
0"
03
04
0#
#1250000
1#
1"
14
13
#1260000
03
0#
04
0"
#1270000
1"
13
14
1#
#1280000
0#
0"
04
03
#1290000
13
1#
14
1"
#1300000
0"
03
04
0#
#1310000
1#
1"
14
13
#1320000
03
0#
04
0"
#1330000
1"
13
14
1#
#1340000
0#
0"
04
03
#1350000
13
1#
14
1"
#1360000
0"
03
04
0#
#1370000
1#
1"
14
13
#1380000
03
0#
04
0"
#1390000
1"
13
14
1#
#1400000
0#
0"
04
03
#1410000
13
1#
14
1"
#1420000
0"
03
04
0#
#1430000
1#
1"
14
13
#1440000
03
0#
04
0"
#1450000
1"
13
14
1#
#1460000
0#
0"
04
03
#1470000
13
1#
14
1"
#1480000
0"
03
04
0#
#1490000
1#
1"
14
13
#1500000
03
0#
04
0"
#1510000
1"
13
14
1#
#1520000
0#
0"
04
03
#1530000
13
1#
14
1"
#1540000
0"
03
04
0#
#1550000
1#
1"
14
13
#1560000
03
0#
04
0"
#1570000
1"
13
14
1#
#1580000
0#
0"
04
03
#1590000
13
1#
14
1"
#1600000
0"
03
04
0#
#1610000
1#
1"
14
13
#1620000
03
0#
04
0"
#1630000
1"
13
14
1#
#1640000
0#
0"
04
03
#1650000
13
1#
14
1"
#1660000
0"
03
04
0#
#1670000
1#
1"
14
13
#1680000
03
0#
04
0"
#1690000
1"
13
14
1#
#1700000
0#
0"
04
03
#1710000
13
1#
14
1"
#1720000
0"
03
04
0#
#1730000
1#
1"
14
13
#1740000
03
0#
04
0"
#1750000
1"
13
14
1#
#1760000
0#
0"
04
03
#1770000
13
1#
14
1"
#1780000
0"
03
04
0#
#1790000
1#
1"
14
13
#1800000
03
0#
04
0"
#1810000
1"
13
14
1#
#1820000
0#
0"
04
03
#1830000
13
1#
14
1"
#1840000
0"
03
04
0#
#1850000
1#
1"
14
13
#1860000
03
0#
04
0"
#1870000
1"
13
14
1#
#1880000
0#
0"
04
03
#1890000
13
1#
14
1"
#1900000
0"
03
04
0#
#1910000
1#
1"
14
13
#1920000
03
0#
04
0"
#1930000
1"
13
14
1#
#1940000
0#
0"
04
03
#1950000
13
1#
14
1"
#1960000
0"
03
04
0#
#1970000
1#
1"
14
13
#1980000
03
0#
04
0"
#1990000
1"
13
14
1#
#2000000
0#
0"
04
03
#2010000
13
1#
14
1"
#2020000
0"
03
04
0#
#2030000
1#
1"
14
13
#2040000
03
0#
04
0"
#2050000
1"
13
14
1#
#2060000
0#
0"
04
03
#2070000
13
1#
14
1"
#2080000
0"
03
04
0#
#2090000
1#
1"
14
13
#2100000
03
0#
04
0"
#2110000
1"
13
14
1#
#2120000
0#
0"
04
03
#2130000
13
1#
14
1"
#2140000
0"
03
04
0#
#2150000
1#
1"
14
13
#2160000
03
0#
04
0"
#2170000
1"
13
14
1#
#2180000
0#
0"
04
03
#2190000
13
1#
14
1"
#2200000
0"
03
04
0#
#2210000
1#
1"
14
13
#2220000
03
0#
04
0"
#2230000
1"
13
14
1#
#2240000
0#
0"
04
03
#2250000
13
1#
14
1"
#2260000
0"
03
04
0#
#2270000
1#
1"
14
13
#2280000
03
0#
04
0"
#2290000
1"
13
14
1#
#2300000
0#
0"
04
03
#2310000
13
1#
14
1"
#2320000
0"
03
04
0#
#2330000
1#
1"
14
13
#2340000
03
0#
04
0"
#2350000
1"
13
14
1#
#2360000
0#
0"
04
03
#2370000
13
1#
14
1"
#2380000
0"
03
04
0#
#2390000
1#
1"
14
13
#2400000
03
0#
04
0"
#2410000
1"
13
14
1#
#2420000
0#
0"
04
03
#2430000
13
1#
14
1"
#2440000
0"
03
04
0#
#2450000
1#
1"
14
13
#2460000
03
0#
04
0"
#2470000
1"
13
14
1#
#2480000
0#
0"
04
03
#2490000
13
1#
14
1"
#2500000
0"
03
04
0#
#2510000
1#
1"
14
13
#2520000
03
0#
04
0"
#2530000
1"
13
14
1#
#2540000
0#
0"
04
03
#2550000
13
1#
14
1"
#2560000
0"
03
04
0#
#2570000
1#
1"
14
13
#2580000
03
0#
04
0"
#2590000
1"
13
14
1#
#2600000
0#
0"
04
03
#2610000
13
1#
14
1"
#2620000
0"
03
04
0#
#2630000
1#
1"
14
13
#2640000
03
0#
04
0"
#2650000
1"
13
14
1#
#2660000
0#
0"
04
03
#2670000
13
1#
14
1"
#2680000
0"
03
04
0#
#2690000
1#
1"
14
13
#2700000
03
0#
04
0"
#2710000
1"
13
14
1#
#2720000
0#
0"
04
03
#2730000
13
1#
14
1"
#2740000
0"
03
04
0#
#2750000
1#
1"
14
13
#2760000
03
0#
04
0"
#2770000
1"
13
14
1#
#2780000
0#
0"
04
03
#2790000
13
1#
14
1"
#2800000
0"
03
04
0#
#2810000
1#
1"
14
13
#2820000
03
0#
04
0"
#2830000
1"
13
14
1#
#2840000
0#
0"
04
03
#2850000
13
1#
14
1"
#2860000
0"
03
04
0#
#2870000
1#
1"
14
13
#2880000
03
0#
04
0"
#2890000
1"
13
14
1#
#2900000
0#
0"
04
03
#2910000
13
1#
14
1"
#2920000
0"
03
04
0#
#2930000
1#
1"
14
13
#2940000
03
0#
04
0"
#2950000
1"
13
14
1#
#2960000
0#
0"
04
03
#2970000
13
1#
14
1"
#2980000
0"
03
04
0#
#2990000
1#
1"
14
13
#3000000
03
0#
04
0"
#3010000
1"
13
14
1#
#3020000
0#
0"
04
03
#3030000
13
1#
14
1"
#3040000
0"
03
04
0#
#3050000
1#
1"
14
13
#3060000
03
0#
04
0"
#3070000
1"
13
14
1#
#3080000
0#
0"
04
03
#3090000
13
1#
14
1"
#3100000
0"
03
04
0#
#3110000
1#
1"
14
13
#3120000
03
0#
04
0"
#3130000
1"
13
14
1#
#3140000
0#
0"
04
03
#3150000
13
1#
14
1"
#3160000
0"
03
04
0#
#3170000
1#
1"
14
13
#3180000
03
0#
04
0"
#3190000
1"
13
14
1#
#3200000
0#
0"
04
03
#3210000
13
1#
14
1"
#3220000
0"
03
04
0#
#3230000
1#
1"
14
13
#3240000
03
0#
04
0"
#3250000
1"
13
14
1#
#3260000
0#
0"
04
03
#3270000
13
1#
14
1"
#3280000
0"
03
04
0#
#3290000
1#
1"
14
13
#3300000
03
0#
04
0"
#3310000
1"
13
14
1#
#3320000
0#
0"
04
03
#3330000
13
1#
14
1"
#3340000
0"
03
04
0#
#3350000
1#
1"
14
13
#3360000
03
0#
04
0"
#3370000
1"
13
14
1#
#3380000
0#
0"
04
03
#3390000
13
1#
14
1"
#3400000
0"
03
04
0#
#3410000
1#
1"
14
13
#3420000
03
0#
04
0"
#3430000
1"
13
14
1#
#3440000
0#
0"
04
03
#3450000
13
1#
14
1"
#3460000
0"
03
04
0#
#3470000
1#
1"
14
13
#3480000
03
0#
04
0"
#3490000
1"
13
14
1#
#3500000
0#
0"
04
03
#3510000
13
1#
14
1"
#3520000
0"
03
04
0#
#3530000
1#
1"
14
13
#3540000
03
0#
04
0"
#3550000
1"
13
14
1#
#3560000
0#
0"
04
03
#3570000
13
1#
14
1"
#3580000
0"
03
04
0#
#3590000
1#
1"
14
13
#3600000
03
0#
04
0"
#3610000
1"
13
14
1#
#3620000
0#
0"
04
03
#3630000
13
1#
14
1"
#3640000
0"
03
04
0#
#3650000
1#
1"
14
13
#3660000
03
0#
04
0"
#3670000
1"
13
14
1#
#3680000
0#
0"
04
03
#3690000
13
1#
14
1"
#3700000
0"
03
04
0#
#3710000
1#
1"
14
13
#3720000
03
0#
04
0"
#3730000
1"
13
14
1#
#3740000
0#
0"
04
03
#3750000
13
1#
14
1"
#3760000
0"
03
04
0#
#3770000
1#
1"
14
13
#3780000
03
0#
04
0"
#3790000
1"
13
14
1#
#3800000
0#
0"
04
03
#3810000
13
1#
14
1"
#3820000
0"
03
04
0#
#3830000
1#
1"
14
13
#3840000
03
0#
04
0"
#3850000
1"
13
14
1#
#3860000
0#
0"
04
03
#3870000
13
1#
14
1"
#3880000
0"
03
04
0#
#3890000
1#
1"
14
13
#3900000
03
0#
04
0"
#3910000
1"
13
14
1#
#3920000
0#
0"
04
03
#3930000
13
1#
14
1"
#3940000
0"
03
04
0#
#3950000
1#
1"
14
13
#3960000
03
0#
04
0"
#3970000
1"
13
14
1#
#3980000
0#
0"
04
03
#3990000
13
1#
14
1"
#4000000
0"
03
04
0#
#4010000
1#
1"
14
13
#4020000
03
0#
04
0"
#4030000
1"
13
14
1#
#4040000
0#
0"
04
03
#4050000
13
1#
14
1"
#4060000
0"
03
04
0#
#4070000
1#
1"
14
13
#4080000
03
0#
04
0"
#4090000
1"
13
14
1#
#4100000
0#
0"
04
03
#4110000
13
1#
14
1"
#4120000
0"
03
04
0#
#4130000
1#
1"
14
13
#4140000
03
0#
04
0"
#4150000
1"
13
14
1#
#4160000
0#
0"
04
03
#4170000
13
1#
14
1"
#4180000
0"
03
04
0#
#4190000
1#
1"
14
13
#4200000
03
0#
04
0"
#4210000
1"
13
14
1#
#4220000
0#
0"
04
03
#4230000
13
1#
14
1"
#4240000
0"
03
04
0#
#4250000
1#
1"
14
13
#4260000
03
0#
04
0"
#4270000
1"
13
14
1#
#4280000
0#
0"
04
03
#4290000
13
1#
14
1"
#4300000
0"
03
04
0#
#4310000
1#
1"
14
13
#4320000
03
0#
04
0"
#4330000
1"
13
14
1#
#4340000
0#
0"
04
03
#4350000
13
1#
14
1"
#4360000
0"
03
04
0#
#4370000
1#
1"
14
13
#4380000
03
0#
04
0"
#4390000
1"
13
14
1#
#4400000
0#
0"
04
03
#4410000
13
1#
14
0'
1"
#4420000
0"
03
0#
04
#4430000
14
1"
1#
13
#4440000
03
04
0#
0"
#4450000
1"
13
1#
14
#4460000
04
0"
0#
03
#4470000
13
14
1#
1"
#4480000
0"
03
0#
04
#4490000
14
1"
1#
1'
13
