verilog/dv/caravel/mgmt_soc/gpio/padframe.vcd
$date
	Mon Feb 15 12:00:25 2021
$end
$version
	GTKWave Analyzer v3.3.98 (w)1999-2019 BSI
$end
$timescale
	1ps
$end
$scope module gpio_tb $end
$scope module uut $end
$scope module padframe $end
$var wire 1 " analog_a $end
$var wire 1 # analog_b $end
$var wire 1 $ clock $end
$var wire 1 ' flash_clk $end
$var wire 1 ) flash_clk_ieb_core $end
$var wire 1 + flash_csb $end
$var wire 1 - flash_csb_ieb_core $end
$var wire 1 / flash_io0 $end
$var wire 1 5 flash_io1 $end
$var wire 1 ; gpio $end
$var wire 31 H mprj_analog_io[30:0] $end
$var wire 38 I mprj_io[37:0] $end
$var wire 38 J mprj_io_analog_en[37:0] $end
$var wire 38 K mprj_io_analog_pol[37:0] $end
$var wire 38 L mprj_io_analog_sel[37:0] $end
$var wire 114 M mprj_io_dm[113:0] $end
$var wire 38 N mprj_io_enh[37:0] $end
$var wire 38 O mprj_io_hldh_n[37:0] $end
$var wire 38 P mprj_io_holdover[37:0] $end
$var wire 38 Q mprj_io_ib_mode_sel[37:0] $end
$var wire 38 S mprj_io_inp_dis[37:0] $end
$var wire 38 T mprj_io_oeb[37:0] $end
$var wire 38 U mprj_io_out[37:0] $end
$var wire 38 V mprj_io_slow_sel[37:0] $end
$var wire 38 W mprj_io_vtrip_sel[37:0] $end
$var wire 1 Z resetb $end
$var wire 1 \ vccd $end
$var wire 1 ] vccd1 $end
$var wire 1 ^ vccd2 $end
$var wire 1 _ vdda $end
$var wire 1 ` vdda1 $end
$var wire 1 a vdda2 $end
$var wire 1 b vddio $end
$var wire 1 c vddio_q $end
$var wire 1 d vssa $end
$var wire 1 e vssa1 $end
$var wire 1 f vssa2 $end
$var wire 1 g vssd $end
$var wire 1 h vssd1 $end
$var wire 1 i vssd2 $end
$var wire 1 j vssio $end
$var wire 1 k vssio_q $end
$var wire 1 l xresloop $end
$var wire 1 [ resetb_core_h $end
$var wire 1 Y porb_h $end
$var wire 1 X por $end
$var wire 38 R mprj_io_in[37:0] $end
$var wire 1 G loop_gpio $end
$var wire 1 F loop_flash_io1 $end
$var wire 1 E loop_flash_io0 $end
$var wire 1 D loop_flash_csb $end
$var wire 1 C loop_flash_clk $end
$var wire 1 B loop_clock $end
$var wire 1 A gpio_outenb_core $end
$var wire 1 @ gpio_out_core $end
$var wire 1 ? gpio_mode1_core $end
$var wire 1 > gpio_mode0_core $end
$var wire 1 = gpio_inenb_core $end
$var wire 1 < gpio_in_core $end
$var wire 1 : flash_io1_oeb_core $end
$var wire 3 9 flash_io1_mode[2:0] $end
$var wire 1 8 flash_io1_ieb_core $end
$var wire 1 7 flash_io1_do_core $end
$var wire 1 6 flash_io1_di_core $end
$var wire 1 4 flash_io0_oeb_core $end
$var wire 3 3 flash_io0_mode[2:0] $end
$var wire 1 2 flash_io0_ieb_core $end
$var wire 1 1 flash_io0_do_core $end
$var wire 1 0 flash_io0_di_core $end
$var wire 1 . flash_csb_oeb_core $end
$var wire 1 , flash_csb_core $end
$var wire 1 * flash_clk_oeb_core $end
$var wire 1 ( flash_clk_core $end
$var wire 3 & dm_all[2:0] $end
$var wire 1 % clock_core $end
$upscope $end
$upscope $end
$upscope $end
$enddefinitions $end
$dumpvars
#0
x7
xX
bx P
x0
x6
x'
z"
z#
0a
x/
bx M
x1
bx 3
x4
0b
0c
x2
bx N
x%
x*
x,
0d
x.
0e
x5
b0 O
bx &
x(
0f
bx U
0j
1)
0g
0h
0i
x;
bx Q
xY
0l
bx S
0k
x[
bx H
bx T
x8
0\
0F
x+
bx R
x$
0G
bx I
bx V
0B
0D
bx W
0E
0C
bx J
0Z
0`
x>
1-
xA
x@
x?
bx K
0]
bx 9
x<
0^
x=
x:
bx L
0_
#200000
1_
bz H
1b
z'
z/
1a
b11111111111111111111111111111111111111 O
b0 N
1c
z5
z;
0Y
0$
z+
bz1zzz I
1`
#201000
0[
#210000
1$
#220000
0$
#230000
1$
#240000
0$
#250000
1$
#260000
0$
#270000
1$
#280000
0$
#290000
1$
#300000
0$
#310000
1$
#320000
0$
#330000
1$
#340000
0$
#350000
1$
#360000
0$
#370000
1$
#380000
0$
#390000
1$
#400000
0$
b0 P
1X
14
b111 3
b110110110110110110110110110110110110110110110110110110110110110110110110110110110110110110110110110110110110110110 M
12
0%
1*
1.
b0 Q
b0 S
b0 L
1\
b11111111111111111111111111111111111111 T
18
bx1xxx R
b0 V
b0 W
1:
b0 J
1]
b0 K
1^
b111 9
#410000
1%
07
b1 &
1$
1,
bx1x00 U
0(
0@
1A
1>
0?
0=
#420000
0%
0$
#430000
1$
1%
#440000
0%
0$
#450000
1$
1%
#460000
0%
0$
#470000
1$
1%
#480000
0%
0$
#490000
1$
1%
#500000
0%
0$
#510000
1$
1%
#520000
0%
0$
#530000
1$
1%
#540000
0%
0$
#550000
1$
1%
#560000
0%
0$
#570000
1$
1%
#580000
0%
0$
#590000
1$
1%
#600000
0%
0$
#610000
1$
1%
#620000
0%
0$
#630000
1$
1%
#640000
0%
0$
#650000
1$
1%
#660000
0%
0$
#670000
1$
1%
#680000
0%
0$
#690000
1$
1%
#700000
0%
0$
0X
b11111111111111111111111111111111111111 N
00
06
1Y
#710000
1$
1%
#720000
0%
0$
#730000
1$
1%
#740000
0%
0$
#750000
1$
1%
#760000
0%
0$
#770000
1$
1%
#780000
0%
0$
#790000
1$
1%
#800000
0%
0$
#810000
1$
1%
#820000
0%
0$
#830000
1$
1%
#840000
0%
0$
#850000
1$
1%
#860000
0%
0$
#870000
1$
1%
#880000
0%
0$
#890000
1$
1%
#900000
0%
0$
#910000
1$
1%
#920000
0%
0$
#930000
1$
1%
#940000
0%
0$
#950000
1$
1%
#960000
0%
0$
#970000
1$
1%
#980000
0%
0$
#990000
1$
1%
#1000000
0%
0$
1l
1Z
#1001000
1[
#1010000
1$
1%
#1020000
0%
0$
#1030000
1$
1%
#1040000
0%
0$
#1050000
1$
1%
b1 9
x/
0'
b110 3
04
0.
0*
08
x6
1+
#1060000
0%
0$
#1070000
1$
1%
#1080000
0%
0$
#1090000
1$
1%
#1100000
0%
0$
#1110000
1$
1%
0+
11
1/
0,
#1111000
05
06
#1120000
0$
0%
#1130000
1%
1$
1'
1(
#1140000
0$
0%
#1150000
1%
1$
0(
0'
#1160000
0$
0%
#1170000
1%
1$
1'
1(
#1180000
0$
0%
#1190000
1%
1$
0(
0'
#1200000
0$
0%
#1210000
1%
1$
1'
1(
#1220000
0$
0%
#1230000
1%
1$
0(
0'
#1240000
0$
0%
#1250000
1%
1$
1'
1(
#1260000
0$
0%
#1270000
1%
1$
0(
0'
#1280000
0$
0%
#1290000
1%
1$
1'
1(
#1300000
0$
0%
#1310000
1%
1$
0(
0'
#1320000
0$
0%
#1330000
1%
1$
1'
1(
#1340000
0$
0%
#1350000
1%
1$
0(
0'
#1360000
0$
0%
#1370000
1%
1$
1'
1(
#1380000
0$
0%
#1390000
1%
1$
0(
0'
#1400000
0$
0%
#1410000
1%
1$
1'
1(
#1420000
0$
0%
#1430000
1%
1$
0(
0/
01
0'
#1431000
16
15
#1440000
0%
0$
#1450000
1$
1%
1+
1,
#1451000
z5
x6
#1460000
0%
0$
#1470000
1$
1%
0,
1/
0+
11
#1471000
06
05
#1480000
0%
0$
#1490000
1$
1%
1'
1(
#1500000
0$
0%
#1510000
1%
1$
0'
01
0/
0(
#1520000
0$
0%
#1530000
1%
1$
1(
1'
#1540000
0$
0%
#1550000
1%
1$
0'
0(
1/
11
#1560000
0$
0%
#1570000
1%
1$
1'
1(
#1580000
0%
0$
#1590000
1$
1%
0'
01
0/
0(
#1600000
0%
0$
#1610000
1$
1%
1(
1'
#1620000
0%
0$
#1630000
1$
1%
0'
0(
1/
11
#1640000
0%
0$
#1650000
1$
1%
1'
1(
#1660000
0$
0%
#1670000
1%
1$
0'
01
0/
0(
#1680000
0$
0%
#1690000
1%
1$
1(
1'
#1700000
0$
0%
#1710000
1%
1$
0'
0(
1/
11
#1720000
0$
0%
#1730000
1%
1$
1'
1(
#1740000
0%
0$
#1750000
1$
1%
0'
0(
#1760000
0$
0%
#1770000
1%
1$
1'
1(
#1780000
0%
0$
#1790000
1$
1%
0'
01
0/
0(
#1791000
15
16
#1800000
0%
0$
#1810000
1$
1%
1,
1+
#1811000
x6
z5
#1820000
0%
0$
#1830000
1$
1%
0+
0,
#1831000
05
06
#1840000
0$
0%
#1850000
1%
1$
1'
1(
#1860000
0$
0%
#1870000
1%
1$
0(
0'
#1880000
0$
0%
#1890000
1%
1$
1'
1(
#1900000
0$
0%
#1910000
1%
1$
0(
0'
#1920000
0$
0%
#1930000
1%
1$
1'
1(
#1940000
0$
0%
#1950000
1%
1$
0(
0'
#1960000
0$
0%
#1970000
1%
1$
1'
1(
#1980000
0$
0%
#1990000
1%
1$
0(
0'
#2000000
0$
0%
#2010000
1%
1$
1'
1(
#2020000
0$
0%
#2030000
1%
1$
0(
0'
#2040000
0$
0%
#2050000
1%
1$
1'
1(
#2060000
0$
0%
#2070000
1%
1$
0(
0'
1/
11
#2080000
0$
0%
#2090000
1%
1$
1(
1'
#2100000
0%
0$
#2110000
1$
1%
0(
0'
#2120000
0$
0%
#2130000
1%
1$
1(
1'
#2140000
0%
0$
#2150000
1$
1%
0(
01
0/
0'
#2160000
0%
0$
#2170000
1$
1%
1'
1(
#2180000
0%
0$
#2190000
1$
1%
0(
0'
#2200000
0%
0$
#2210000
1$
1%
1'
1(
#2220000
0%
0$
#2230000
1$
1%
0(
0'
#2240000
0%
0$
#2250000
1$
1%
1'
1(
#2260000
0%
0$
#2270000
1$
1%
0(
0'
#2280000
0%
0$
#2290000
1$
1%
1'
1(
#2300000
0%
0$
#2310000
1$
1%
0(
0'
#2320000
0%
0$
#2330000
1$
1%
1'
1(
#2340000
0%
0$
#2350000
1$
1%
0(
0'
#2360000
0%
0$
#2370000
1$
1%
1'
1(
#2380000
0%
0$
#2390000
1$
1%
0(
0'
#2391000
16
15
#2400000
0%
0$
#2410000
1$
1%
1'
1(
#2420000
0$
0%
#2430000
1%
1$
0'
0(
#2440000
0%
0$
#2450000
1$
1%
1'
1(
#2460000
0$
0%
#2470000
1%
1$
0'
0(
#2471000
05
06
